Fundamentals of Data Science - 9 APIs
…
# A tibble: 6 × 3
  codelist          conceptref isfrequencydimension
  <chr>             <chr>      <chr>               
1 CL_31_1_GEOGRAPHY GEOGRAPHY  false               
2 CL_31_1_SEX       SEX        false               
3 CL_31_1_AGE       AGE        false               
4 CL_31_1_MEASURES  MEASURES   false               
5 CL_31_1_FREQ      FREQ       true                
6 CL_31_1_TIME      TIME       false               

GEOGRAPHY looks relevant, so we explore what “types” are available.

nomis_get_metadata(id, "GEOGRAPHY", type = "type")

# A tibble: 26 × 3
   id      label.en                                               description.en
   <chr>   <chr>                                                  <chr>         
 1 TYPE83  jobcentre plus group as of April 2019                  jobcentre plu…
 2 TYPE84  jobcentre plus district as of April 2019               jobcentre plu…
 3 TYPE342 english index of multiple deprivation 2010 - deciles   english index…
 4 TYPE347 scottish index of multiple deprivation 2009 - deciles  scottish inde…
 5 TYPE349 welsh index of multiple deprivation 2008 - deciles     welsh index o…
 6 TYPE431 local authorities: county / unitary (as of April 2021) local authori…
 7 TYPE432 local authorities: district / unitary (as of April 20… local authori…
 8 TYPE433 local authorities: county / unitary (as of April 2019) local authori…
 9 TYPE434 local authorities: district / unitary (as of April 20… local authori…
10 TYPE442 combined authorities                                   combined auth…
# ℹ 16 more rows
…
